Origen;Destino;FS
2;1;2
3;10;2
12;1;2
9;1;5
12;9;6
3;1;8
3;13;6
13;8;2
6;4;4
2;9;2
7;4;8
12;5;7
5;1;5
2;10;8
5;4;6
3;11;8
0;10;8
10;7;6
7;13;2
13;4;7
8;1;4
11;3;8
4;13;2
9;8;7
6;4;5
1;0;2
6;12;3
3;10;5
4;9;4
1;4;6
2;8;3
4;6;3
2;0;2
3;11;6
3;10;3
13;12;3
4;1;3
5;9;7
5;4;2
7;11;5
6;7;2
13;1;2
2;3;3
13;6;3
12;8;6
13;3;7
7;1;7
1;12;4
3;6;6
11;5;8
13;10;4
2;9;7
9;1;6
1;6;8
3;8;5
10;9;2
5;11;2
9;7;7
6;4;2
5;4;8
5;13;3
7;1;8
5;0;4
10;8;8
5;13;8
8;11;8
7;0;6
10;3;2
7;12;3
6;12;5
10;12;4
4;0;7
10;1;6
7;12;7
3;10;3
9;2;5
10;7;6
12;1;3
7;13;5
1;5;8
11;13;4
0;13;5
3;6;5
13;3;3
10;3;8
9;6;7
1;10;7
12;0;8
2;0;8
3;10;5
11;4;3
0;12;5
1;3;6
3;13;6
2;10;7
2;0;7
7;6;3
13;9;4
10;9;6
3;1;6
